{
  "name": "@abstraktor/z-abs-stacklayer-core-server",
  "version": "0.0.0-ad-beta.2",
  "lockfileVersion": 2,
  "requires": true,
  "packages": {
    "": {
      "name": "@abstraktor/z-abs-stacklayer-core-server",
      "version": "0.0.0-ad-beta.2",
      "license": "SEE LICENSE IN ./License agreement ActorJs.pdf"
    }
  }
}
